simulation.log
# vsim -vopt work.tb -voptargs="+acc=npr" -assertdebug -l simulation.log -coverage -c -do "coverage save -onexit -assert -directive -cvg -codeAll coverage.ucdb; run -all; exit" 
# Start time: 15:03:49 on Jul 06,2026
# ** Note: (vsim-3813) Design is being optimized due to module recompilation...
# //  Questa Sim
# //  Version 10.6c linux Jul 25 2017
# //
# //  Copyright 1991-2017 Mentor Graphics Corporation
# //  All Rights Reserved.
# //
# //  QuestaSim and its associated documentation contain trade
# //  secrets and commercial or financial information that are the property of
# //  Mentor Graphics Corporation and are privileged, confidential,
# //  and exempt from disclosure under the Freedom of Information Act,
# //  5 U.S.C. Section 552. Furthermore, this information
# //  is prohibited from disclosure under the Trade Secrets Act,
# //  18 U.S.C. Section 1905.
# //
# Loading sv_std.std
# Loading work.ram_if(fast)
# Loading work.ram_pkg(fast)
# Loading work.tb(fast)
# Loading work.interface_sv_unit(fast)
# Loading work.ram_if(fast)
# Loading work.RAM(fast)
# coverage save -onexit -assert -directive -cvg -codeAll coverage.ucdb
#  run -all
# 
#  
#  
# Running Read Followed by write 
#  
# 
# Only Read Test Cases
# Reset Asserted
# Reset Deasserted at time 60
# 
#  
# Driving inputs at time 140 Test ID 0: data_in = 0 | address = 28 | write_en = 0 | read_en = 1
# ram_pkg.scoreboard.run Got data_in = 0 | address = 28 | write_en = 0 | read_en = 1
# Reading from the reference
# ram_pkg.monitor.run Test ID: 0 Monitor Putting dut out: z into mailbox at time 220
# Reset Asserted
# Reset Asserted
# 
#  
# Driving inputs during reset at time 260 Test ID: 1: data_in = 0 | address = 23 | write_en = 0 | read_en = 1
# ram_pkg.scoreboard.run Got data_in = 0 | address = 23 | write_en = 0 | read_en = 1
# ram_pkg.monitor.run Test ID: 1 Monitor Putting dut out: z into mailbox at time 300
# Reset Asserted
# Reset Asserted
# Reset Deasserted at time 340
# 
#  
# Driving inputs during reset at time 340 Test ID: 2: data_in = 0 | address = 14 | write_en = 0 | read_en = 1
# ram_pkg.scoreboard.run Got data_in = 0 | address = 14 | write_en = 0 | read_en = 1
# 
#  
# Driving inputs at time 380 Test ID 3: data_in = 0 | address = 1 | write_en = 0 | read_en = 1
# ram_pkg.monitor.run Test ID: 2 Monitor Putting dut out: z into mailbox at time 380
# Reading from the reference
# At time 380 Test FAILED : ref = 0 | dut = z
# ram_pkg.scoreboard.run Got data_in = 0 | address = 1 | write_en = 0 | read_en = 1
# Reading from the reference
# 
#  
# Driving inputs at time 460 Test ID 4: data_in = 0 | address = 17 | write_en = 0 | read_en = 1
# ram_pkg.monitor.run Test ID: 3 Monitor Putting dut out: 0 into mailbox at time 460
# Test PASSED : ref = 0 | dut = 0
# ram_pkg.scoreboard.run Got data_in = 0 | address = 17 | write_en = 0 | read_en = 1
# Reading from the reference
# 
#  
# Driving inputs at time 540 Test ID 5: data_in = 0 | address = 21 | write_en = 0 | read_en = 1
# ram_pkg.monitor.run Test ID: 4 Monitor Putting dut out: 0 into mailbox at time 540
# Test PASSED : ref = 0 | dut = 0
# ram_pkg.scoreboard.run Got data_in = 0 | address = 21 | write_en = 0 | read_en = 1
# Reading from the reference
# 
#  
# Driving inputs at time 620 Test ID 6: data_in = 0 | address = 31 | write_en = 0 | read_en = 1
# ram_pkg.monitor.run Test ID: 5 Monitor Putting dut out: 0 into mailbox at time 620
# Test PASSED : ref = 0 | dut = 0
# ram_pkg.scoreboard.run Got data_in = 0 | address = 31 | write_en = 0 | read_en = 1
# Reading from the reference
# 
#  
# Driving inputs at time 700 Test ID 7: data_in = 0 | address = 3 | write_en = 0 | read_en = 1
# ram_pkg.monitor.run Test ID: 6 Monitor Putting dut out: 0 into mailbox at time 700
# Test PASSED : ref = 0 | dut = 0
# ram_pkg.scoreboard.run Got data_in = 0 | address = 3 | write_en = 0 | read_en = 1
# Reading from the reference
# 
#  
# Driving inputs at time 780 Test ID 8: data_in = 0 | address = 5 | write_en = 0 | read_en = 1
# ram_pkg.monitor.run Test ID: 7 Monitor Putting dut out: 0 into mailbox at time 780
# Test PASSED : ref = 0 | dut = 0
# ram_pkg.scoreboard.run Got data_in = 0 | address = 5 | write_en = 0 | read_en = 1
# Reading from the reference
# 
#  
# Driving inputs at time 860 Test ID 9: data_in = 0 | address = 20 | write_en = 0 | read_en = 1
# ram_pkg.monitor.run Test ID: 8 Monitor Putting dut out: 0 into mailbox at time 860
# Test PASSED : ref = 0 | dut = 0
# ram_pkg.scoreboard.run Got data_in = 0 | address = 20 | write_en = 0 | read_en = 1
# Reading from the reference
# 
#  
# Driving inputs at time 940 Test ID 10: data_in = 0 | address = 25 | write_en = 0 | read_en = 1
# ram_pkg.monitor.run Test ID: 9 Monitor Putting dut out: 0 into mailbox at time 940
# Test PASSED : ref = 0 | dut = 0
# ram_pkg.scoreboard.run Got data_in = 0 | address = 25 | write_en = 0 | read_en = 1
# Reading from the reference
# 
#  
# Driving inputs at time 1020 Test ID 11: data_in = 0 | address = 19 | write_en = 0 | read_en = 1
# ram_pkg.monitor.run Test ID: 10 Monitor Putting dut out: 0 into mailbox at time 1020
# Test PASSED : ref = 0 | dut = 0
# ram_pkg.scoreboard.run Got data_in = 0 | address = 19 | write_en = 0 | read_en = 1
# Reading from the reference
# 
#  
# Driving inputs at time 1100 Test ID 12: data_in = 0 | address = 6 | write_en = 0 | read_en = 1
# ram_pkg.monitor.run Test ID: 11 Monitor Putting dut out: 0 into mailbox at time 1100
# Test PASSED : ref = 0 | dut = 0
# ram_pkg.scoreboard.run Got data_in = 0 | address = 6 | write_en = 0 | read_en = 1
# Reading from the reference
# 
#  
# Driving inputs at time 1180 Test ID 13: data_in = 0 | address = 4 | write_en = 0 | read_en = 1
# ram_pkg.monitor.run Test ID: 12 Monitor Putting dut out: 0 into mailbox at time 1180
# Test PASSED : ref = 0 | dut = 0
# ram_pkg.scoreboard.run Got data_in = 0 | address = 4 | write_en = 0 | read_en = 1
# Reading from the reference
# 
#  
# Driving inputs at time 1260 Test ID 14: data_in = 0 | address = 20 | write_en = 0 | read_en = 1
# ram_pkg.monitor.run Test ID: 13 Monitor Putting dut out: 0 into mailbox at time 1260
# Test PASSED : ref = 0 | dut = 0
# ram_pkg.scoreboard.run Got data_in = 0 | address = 20 | write_en = 0 | read_en = 1
# Reading from the reference
# 
#  
# Driving inputs at time 1340 Test ID 15: data_in = 0 | address = 12 | write_en = 0 | read_en = 1
# ram_pkg.monitor.run Test ID: 14 Monitor Putting dut out: 0 into mailbox at time 1340
# Test PASSED : ref = 0 | dut = 0
# ram_pkg.scoreboard.run Got data_in = 0 | address = 12 | write_en = 0 | read_en = 1
# Reading from the reference
# 
#  
# Driving inputs at time 1420 Test ID 16: data_in = 0 | address = 21 | write_en = 0 | read_en = 1
# ram_pkg.monitor.run Test ID: 15 Monitor Putting dut out: 0 into mailbox at time 1420
# Test PASSED : ref = 0 | dut = 0
# ram_pkg.scoreboard.run Got data_in = 0 | address = 21 | write_en = 0 | read_en = 1
# Reading from the reference
# 
#  
# Driving inputs at time 1500 Test ID 17: data_in = 0 | address = 31 | write_en = 0 | read_en = 1
# ram_pkg.monitor.run Test ID: 16 Monitor Putting dut out: 0 into mailbox at time 1500
# Test PASSED : ref = 0 | dut = 0
# ram_pkg.scoreboard.run Got data_in = 0 | address = 31 | write_en = 0 | read_en = 1
# Reading from the reference
# 
#  
# Driving inputs at time 1580 Test ID 18: data_in = 0 | address = 2 | write_en = 0 | read_en = 1
# ram_pkg.monitor.run Test ID: 17 Monitor Putting dut out: 0 into mailbox at time 1580
# Test PASSED : ref = 0 | dut = 0
# ram_pkg.scoreboard.run Got data_in = 0 | address = 2 | write_en = 0 | read_en = 1
# Reading from the reference
# 
#  
# Driving inputs at time 1660 Test ID 19: data_in = 0 | address = 3 | write_en = 0 | read_en = 1
# ram_pkg.monitor.run Test ID: 18 Monitor Putting dut out: 0 into mailbox at time 1660
# Test PASSED : ref = 0 | dut = 0
# ram_pkg.scoreboard.run Got data_in = 0 | address = 3 | write_en = 0 | read_en = 1
# Reading from the reference
# 
#  
# Driving inputs at time 1740 Test ID 20: data_in = 0 | address = 2 | write_en = 0 | read_en = 1
# ram_pkg.monitor.run Test ID: 19 Monitor Putting dut out: 0 into mailbox at time 1740
# Test PASSED : ref = 0 | dut = 0
# ram_pkg.scoreboard.run Got data_in = 0 | address = 2 | write_en = 0 | read_en = 1
# Reading from the reference
# 
#  
# Driving inputs at time 1820 Test ID 21: data_in = 0 | address = 21 | write_en = 0 | read_en = 1
# ram_pkg.monitor.run Test ID: 20 Monitor Putting dut out: 0 into mailbox at time 1820
# Test PASSED : ref = 0 | dut = 0
# ram_pkg.scoreboard.run Got data_in = 0 | address = 21 | write_en = 0 | read_en = 1
# Reading from the reference
# 
#  
# Driving inputs at time 1900 Test ID 22: data_in = 0 | address = 27 | write_en = 0 | read_en = 1
# ram_pkg.monitor.run Test ID: 21 Monitor Putting dut out: 0 into mailbox at time 1900
# Test PASSED : ref = 0 | dut = 0
# ram_pkg.scoreboard.run Got data_in = 0 | address = 27 | write_en = 0 | read_en = 1
# Reading from the reference
# 
#  
# Driving inputs at time 1980 Test ID 23: data_in = 0 | address = 2 | write_en = 0 | read_en = 1
# ram_pkg.monitor.run Test ID: 22 Monitor Putting dut out: 0 into mailbox at time 1980
# Test PASSED : ref = 0 | dut = 0
# ram_pkg.scoreboard.run Got data_in = 0 | address = 2 | write_en = 0 | read_en = 1
# Reading from the reference
# 
#  
# Driving inputs at time 2060 Test ID 24: data_in = 0 | address = 29 | write_en = 0 | read_en = 1
# ram_pkg.monitor.run Test ID: 23 Monitor Putting dut out: 0 into mailbox at time 2060
# Test PASSED : ref = 0 | dut = 0
# ram_pkg.scoreboard.run Got data_in = 0 | address = 29 | write_en = 0 | read_en = 1
# Reading from the reference
# 
#  
# Driving inputs at time 2140 Test ID 25: data_in = 0 | address = 29 | write_en = 0 | read_en = 1
# ram_pkg.monitor.run Test ID: 24 Monitor Putting dut out: 0 into mailbox at time 2140
# Test PASSED : ref = 0 | dut = 0
# ram_pkg.scoreboard.run Got data_in = 0 | address = 29 | write_en = 0 | read_en = 1
# Reading from the reference
# 
#  
# Driving inputs at time 2220 Test ID 26: data_in = 0 | address = 27 | write_en = 0 | read_en = 1
# ram_pkg.monitor.run Test ID: 25 Monitor Putting dut out: 0 into mailbox at time 2220
# Test PASSED : ref = 0 | dut = 0
# ram_pkg.scoreboard.run Got data_in = 0 | address = 27 | write_en = 0 | read_en = 1
# Reading from the reference
# 
#  
# Driving inputs at time 2300 Test ID 27: data_in = 0 | address = 27 | write_en = 0 | read_en = 1
# ram_pkg.monitor.run Test ID: 26 Monitor Putting dut out: 0 into mailbox at time 2300
# Test PASSED : ref = 0 | dut = 0
# ram_pkg.scoreboard.run Got data_in = 0 | address = 27 | write_en = 0 | read_en = 1
# Reading from the reference
# 
#  
# Driving inputs at time 2380 Test ID 28: data_in = 0 | address = 31 | write_en = 0 | read_en = 1
# ram_pkg.monitor.run Test ID: 27 Monitor Putting dut out: 0 into mailbox at time 2380
# Test PASSED : ref = 0 | dut = 0
# ram_pkg.scoreboard.run Got data_in = 0 | address = 31 | write_en = 0 | read_en = 1
# Reading from the reference
# 
#  
# Driving inputs at time 2460 Test ID 29: data_in = 0 | address = 15 | write_en = 0 | read_en = 1
# ram_pkg.monitor.run Test ID: 28 Monitor Putting dut out: 0 into mailbox at time 2460
# Test PASSED : ref = 0 | dut = 0
# ram_pkg.scoreboard.run Got data_in = 0 | address = 15 | write_en = 0 | read_en = 1
# Reading from the reference
# 
#  
# Driving inputs at time 2540 Test ID 30: data_in = 0 | address = 23 | write_en = 0 | read_en = 1
# ram_pkg.monitor.run Test ID: 29 Monitor Putting dut out: 0 into mailbox at time 2540
# Test PASSED : ref = 0 | dut = 0
# ram_pkg.scoreboard.run Got data_in = 0 | address = 23 | write_en = 0 | read_en = 1
# Reading from the reference
# 
#  
# Driving inputs at time 2620 Test ID 31: data_in = 0 | address = 22 | write_en = 0 | read_en = 1
# ram_pkg.monitor.run Test ID: 30 Monitor Putting dut out: 0 into mailbox at time 2620
# Test PASSED : ref = 0 | dut = 0
# ram_pkg.scoreboard.run Got data_in = 0 | address = 22 | write_en = 0 | read_en = 1
# Reading from the reference
# 
#  
# Driving inputs at time 2700 Test ID 32: data_in = 0 | address = 12 | write_en = 0 | read_en = 1
# ram_pkg.monitor.run Test ID: 31 Monitor Putting dut out: 0 into mailbox at time 2700
# Test PASSED : ref = 0 | dut = 0
# ram_pkg.scoreboard.run Got data_in = 0 | address = 12 | write_en = 0 | read_en = 1
# Reading from the reference
# 
#  
# Driving inputs at time 2780 Test ID 33: data_in = 0 | address = 7 | write_en = 0 | read_en = 1
# ram_pkg.monitor.run Test ID: 32 Monitor Putting dut out: 0 into mailbox at time 2780
# Test PASSED : ref = 0 | dut = 0
# ram_pkg.scoreboard.run Got data_in = 0 | address = 7 | write_en = 0 | read_en = 1
# Reading from the reference
# 
#  
# Driving inputs at time 2860 Test ID 34: data_in = 0 | address = 25 | write_en = 0 | read_en = 1
# ram_pkg.monitor.run Test ID: 33 Monitor Putting dut out: 0 into mailbox at time 2860
# Test PASSED : ref = 0 | dut = 0
# ram_pkg.scoreboard.run Got data_in = 0 | address = 25 | write_en = 0 | read_en = 1
# Reading from the reference
# 
#  
# Driving inputs at time 2940 Test ID 35: data_in = 0 | address = 19 | write_en = 0 | read_en = 1
# ram_pkg.monitor.run Test ID: 34 Monitor Putting dut out: 0 into mailbox at time 2940
# Test PASSED : ref = 0 | dut = 0
# ram_pkg.scoreboard.run Got data_in = 0 | address = 19 | write_en = 0 | read_en = 1
# Reading from the reference
# 
#  
# Driving inputs at time 3020 Test ID 36: data_in = 0 | address = 24 | write_en = 0 | read_en = 1
# ram_pkg.monitor.run Test ID: 35 Monitor Putting dut out: 0 into mailbox at time 3020
# Test PASSED : ref = 0 | dut = 0
# ram_pkg.scoreboard.run Got data_in = 0 | address = 24 | write_en = 0 | read_en = 1
# Reading from the reference
# 
#  
# Driving inputs at time 3100 Test ID 37: data_in = 0 | address = 18 | write_en = 0 | read_en = 1
# ram_pkg.monitor.run Test ID: 36 Monitor Putting dut out: 0 into mailbox at time 3100
# Test PASSED : ref = 0 | dut = 0
# ram_pkg.scoreboard.run Got data_in = 0 | address = 18 | write_en = 0 | read_en = 1
# Reading from the reference
# 
#  
# Driving inputs at time 3180 Test ID 38: data_in = 0 | address = 16 | write_en = 0 | read_en = 1
# ram_pkg.monitor.run Test ID: 37 Monitor Putting dut out: 0 into mailbox at time 3180
# Test PASSED : ref = 0 | dut = 0
# ram_pkg.scoreboard.run Got data_in = 0 | address = 16 | write_en = 0 | read_en = 1
# Reading from the reference
# 
#  
# Driving inputs at time 3260 Test ID 39: data_in = 0 | address = 27 | write_en = 0 | read_en = 1
# ram_pkg.monitor.run Test ID: 38 Monitor Putting dut out: 0 into mailbox at time 3260
# Test PASSED : ref = 0 | dut = 0
# ram_pkg.scoreboard.run Got data_in = 0 | address = 27 | write_en = 0 | read_en = 1
# Reading from the reference
# 
#  
# Driving inputs at time 3340 Test ID 40: data_in = 0 | address = 15 | write_en = 0 | read_en = 1
# ram_pkg.monitor.run Test ID: 39 Monitor Putting dut out: 0 into mailbox at time 3340
# Test PASSED : ref = 0 | dut = 0
# ram_pkg.scoreboard.run Got data_in = 0 | address = 15 | write_en = 0 | read_en = 1
# Reading from the reference
# 
#  
# Driving inputs at time 3420 Test ID 41: data_in = 0 | address = 29 | write_en = 0 | read_en = 1
# ram_pkg.monitor.run Test ID: 40 Monitor Putting dut out: 0 into mailbox at time 3420
# Test PASSED : ref = 0 | dut = 0
# ram_pkg.scoreboard.run Got data_in = 0 | address = 29 | write_en = 0 | read_en = 1
# Reading from the reference
# 
#  
# Driving inputs at time 3500 Test ID 42: data_in = 0 | address = 10 | write_en = 0 | read_en = 1
# ram_pkg.monitor.run Test ID: 41 Monitor Putting dut out: 0 into mailbox at time 3500
# Test PASSED : ref = 0 | dut = 0
# ram_pkg.scoreboard.run Got data_in = 0 | address = 10 | write_en = 0 | read_en = 1
# Reading from the reference
# 
#  
# Driving inputs at time 3580 Test ID 43: data_in = 0 | address = 10 | write_en = 0 | read_en = 1
# ram_pkg.monitor.run Test ID: 42 Monitor Putting dut out: 0 into mailbox at time 3580
# Test PASSED : ref = 0 | dut = 0
# ram_pkg.scoreboard.run Got data_in = 0 | address = 10 | write_en = 0 | read_en = 1
# Reading from the reference
# 
#  
# Driving inputs at time 3660 Test ID 44: data_in = 0 | address = 31 | write_en = 0 | read_en = 1
# ram_pkg.monitor.run Test ID: 43 Monitor Putting dut out: 0 into mailbox at time 3660
# Test PASSED : ref = 0 | dut = 0
# ram_pkg.scoreboard.run Got data_in = 0 | address = 31 | write_en = 0 | read_en = 1
# Reading from the reference
# 
#  
# Driving inputs at time 3740 Test ID 45: data_in = 0 | address = 10 | write_en = 0 | read_en = 1
# ram_pkg.monitor.run Test ID: 44 Monitor Putting dut out: 0 into mailbox at time 3740
# Test PASSED : ref = 0 | dut = 0
# ram_pkg.scoreboard.run Got data_in = 0 | address = 10 | write_en = 0 | read_en = 1
# Reading from the reference
# 
#  
# Driving inputs at time 3820 Test ID 46: data_in = 0 | address = 4 | write_en = 0 | read_en = 1
# ram_pkg.monitor.run Test ID: 45 Monitor Putting dut out: 0 into mailbox at time 3820
# Test PASSED : ref = 0 | dut = 0
# ram_pkg.scoreboard.run Got data_in = 0 | address = 4 | write_en = 0 | read_en = 1
# Reading from the reference
# 
#  
# Driving inputs at time 3900 Test ID 47: data_in = 0 | address = 13 | write_en = 0 | read_en = 1
# ram_pkg.monitor.run Test ID: 46 Monitor Putting dut out: 0 into mailbox at time 3900
# Test PASSED : ref = 0 | dut = 0
# ram_pkg.scoreboard.run Got data_in = 0 | address = 13 | write_en = 0 | read_en = 1
# Reading from the reference
# 
#  
# Driving inputs at time 3980 Test ID 48: data_in = 0 | address = 12 | write_en = 0 | read_en = 1
# ram_pkg.monitor.run Test ID: 47 Monitor Putting dut out: 0 into mailbox at time 3980
# Test PASSED : ref = 0 | dut = 0
# ram_pkg.scoreboard.run Got data_in = 0 | address = 12 | write_en = 0 | read_en = 1
# Reading from the reference
# 
#  
# Driving inputs at time 4060 Test ID 49: data_in = 0 | address = 21 | write_en = 0 | read_en = 1
# ram_pkg.monitor.run Test ID: 48 Monitor Putting dut out: 0 into mailbox at time 4060
# Test PASSED : ref = 0 | dut = 0
# ram_pkg.scoreboard.run Got data_in = 0 | address = 21 | write_en = 0 | read_en = 1
# Reading from the reference
# 
#  
# Driving inputs at time 4140 Test ID 50: data_in = 0 | address = 19 | write_en = 0 | read_en = 1
# ram_pkg.monitor.run Test ID: 49 Monitor Putting dut out: 0 into mailbox at time 4140
# Test PASSED : ref = 0 | dut = 0
# ram_pkg.scoreboard.run Got data_in = 0 | address = 19 | write_en = 0 | read_en = 1
# Reading from the reference
# ram_pkg.monitor.run Test ID: 50 Monitor Putting dut out: 0 into mailbox at time 4220
# Test PASSED : ref = 0 | dut = 0
# Total cases = 98 | Passed = 48 | Failed = 1
# Only write Test Cases
# 
#  
# Driving inputs at time 4380 Test ID 0: data_in = 168 | address = 26 | write_en = 1 | read_en = 0
# ram_pkg.scoreboard.run Got data_in = 168 | address = 26 | write_en = 1 | read_en = 0
# Writing into the reference
# 
#  
# Driving inputs at time 4460 Test ID 1: data_in = 111 | address = 12 | write_en = 1 | read_en = 0
# ram_pkg.monitor.run Test ID: 0 Monitor Putting dut out: z into mailbox at time 4460
# Writing in to RAM
# Test PASSED : ref = z | dut = z
# ram_pkg.scoreboard.run Got data_in = 111 | address = 12 | write_en = 1 | read_en = 0
# Writing into the reference
# 
#  
# Driving inputs at time 4540 Test ID 2: data_in = 19 | address = 27 | write_en = 1 | read_en = 0
# ram_pkg.monitor.run Test ID: 1 Monitor Putting dut out: z into mailbox at time 4540
# Writing in to RAM
# Test PASSED : ref = z | dut = z
# ram_pkg.scoreboard.run Got data_in = 19 | address = 27 | write_en = 1 | read_en = 0
# Writing into the reference
# 
#  
# Driving inputs at time 4620 Test ID 3: data_in = 109 | address = 9 | write_en = 1 | read_en = 0
# ram_pkg.monitor.run Test ID: 2 Monitor Putting dut out: z into mailbox at time 4620
# Writing in to RAM
# Test PASSED : ref = z | dut = z
# ram_pkg.scoreboard.run Got data_in = 109 | address = 9 | write_en = 1 | read_en = 0
# Writing into the reference
# 
#  
# Driving inputs at time 4700 Test ID 4: data_in = 82 | address = 13 | write_en = 1 | read_en = 0
# ram_pkg.monitor.run Test ID: 3 Monitor Putting dut out: z into mailbox at time 4700
# Writing in to RAM
# Test PASSED : ref = z | dut = z
# ram_pkg.scoreboard.run Got data_in = 82 | address = 13 | write_en = 1 | read_en = 0
# Writing into the reference
# 
#  
# Driving inputs at time 4780 Test ID 5: data_in = 244 | address = 20 | write_en = 1 | read_en = 0
# ram_pkg.monitor.run Test ID: 4 Monitor Putting dut out: z into mailbox at time 4780
# Writing in to RAM
# Test PASSED : ref = z | dut = z
# ram_pkg.scoreboard.run Got data_in = 244 | address = 20 | write_en = 1 | read_en = 0
# Writing into the reference
# 
#  
# Driving inputs at time 4860 Test ID 6: data_in = 173 | address = 30 | write_en = 1 | read_en = 0
# ram_pkg.monitor.run Test ID: 5 Monitor Putting dut out: z into mailbox at time 4860
# Writing in to RAM
# Test PASSED : ref = z | dut = z
# ram_pkg.scoreboard.run Got data_in = 173 | address = 30 | write_en = 1 | read_en = 0
# Writing into the reference
# 
#  
# Driving inputs at time 4940 Test ID 7: data_in = 193 | address = 10 | write_en = 1 | read_en = 0
# ram_pkg.monitor.run Test ID: 6 Monitor Putting dut out: z into mailbox at time 4940
# Writing in to RAM
# Test PASSED : ref = z | dut = z
# ram_pkg.scoreboard.run Got data_in = 193 | address = 10 | write_en = 1 | read_en = 0
# Writing into the reference
# 
#  
# Driving inputs at time 5020 Test ID 8: data_in = 18 | address = 16 | write_en = 1 | read_en = 0
# ram_pkg.monitor.run Test ID: 7 Monitor Putting dut out: z into mailbox at time 5020
# Writing in to RAM
# Test PASSED : ref = z | dut = z
# ram_pkg.scoreboard.run Got data_in = 18 | address = 16 | write_en = 1 | read_en = 0
# Writing into the reference
# 
#  
# Driving inputs at time 5100 Test ID 9: data_in = 100 | address = 4 | write_en = 1 | read_en = 0
# ram_pkg.monitor.run Test ID: 8 Monitor Putting dut out: z into mailbox at time 5100
# Writing in to RAM
# Test PASSED : ref = z | dut = z
# ram_pkg.scoreboard.run Got data_in = 100 | address = 4 | write_en = 1 | read_en = 0
# Writing into the reference
# 
#  
# Driving inputs at time 5180 Test ID 10: data_in = 47 | address = 2 | write_en = 1 | read_en = 0
# ram_pkg.monitor.run Test ID: 9 Monitor Putting dut out: z into mailbox at time 5180
# Writing in to RAM
# Test PASSED : ref = z | dut = z
# ram_pkg.scoreboard.run Got data_in = 47 | address = 2 | write_en = 1 | read_en = 0
# Writing into the reference
# 
#  
# Driving inputs at time 5260 Test ID 11: data_in = 238 | address = 19 | write_en = 1 | read_en = 0
# ram_pkg.monitor.run Test ID: 10 Monitor Putting dut out: z into mailbox at time 5260
# Writing in to RAM
# Test PASSED : ref = z | dut = z
# ram_pkg.scoreboard.run Got data_in = 238 | address = 19 | write_en = 1 | read_en = 0
# Writing into the reference
# 
#  
# Driving inputs at time 5340 Test ID 12: data_in = 178 | address = 5 | write_en = 1 | read_en = 0
# ram_pkg.monitor.run Test ID: 11 Monitor Putting dut out: z into mailbox at time 5340
# Writing in to RAM
# Test PASSED : ref = z | dut = z
# ram_pkg.scoreboard.run Got data_in = 178 | address = 5 | write_en = 1 | read_en = 0
# Writing into the reference
# 
#  
# Driving inputs at time 5420 Test ID 13: data_in = 182 | address = 14 | write_en = 1 | read_en = 0
# ram_pkg.monitor.run Test ID: 12 Monitor Putting dut out: z into mailbox at time 5420
# Writing in to RAM
# Test PASSED : ref = z | dut = z
# ram_pkg.scoreboard.run Got data_in = 182 | address = 14 | write_en = 1 | read_en = 0
# Writing into the reference
# 
#  
# Driving inputs at time 5500 Test ID 14: data_in = 126 | address = 4 | write_en = 1 | read_en = 0
# ram_pkg.monitor.run Test ID: 13 Monitor Putting dut out: z into mailbox at time 5500
# Writing in to RAM
# Test PASSED : ref = z | dut = z
# ram_pkg.scoreboard.run Got data_in = 126 | address = 4 | write_en = 1 | read_en = 0
# Writing into the reference
# 
#  
# Driving inputs at time 5580 Test ID 15: data_in = 1 | address = 30 | write_en = 1 | read_en = 0
# ram_pkg.monitor.run Test ID: 14 Monitor Putting dut out: z into mailbox at time 5580
# Writing in to RAM
# Test PASSED : ref = z | dut = z
# ram_pkg.scoreboard.run Got data_in = 1 | address = 30 | write_en = 1 | read_en = 0
# Writing into the reference
# 
#  
# Driving inputs at time 5660 Test ID 16: data_in = 198 | address = 8 | write_en = 1 | read_en = 0
# ram_pkg.monitor.run Test ID: 15 Monitor Putting dut out: z into mailbox at time 5660
# Writing in to RAM
# Test PASSED : ref = z | dut = z
# ram_pkg.scoreboard.run Got data_in = 198 | address = 8 | write_en = 1 | read_en = 0
# Writing into the reference
# 
#  
# Driving inputs at time 5740 Test ID 17: data_in = 229 | address = 27 | write_en = 1 | read_en = 0
# ram_pkg.monitor.run Test ID: 16 Monitor Putting dut out: z into mailbox at time 5740
# Writing in to RAM
# Test PASSED : ref = z | dut = z
# ram_pkg.scoreboard.run Got data_in = 229 | address = 27 | write_en = 1 | read_en = 0
# Writing into the reference
# 
#  
# Driving inputs at time 5820 Test ID 18: data_in = 57 | address = 15 | write_en = 1 | read_en = 0
# ram_pkg.monitor.run Test ID: 17 Monitor Putting dut out: z into mailbox at time 5820
# Writing in to RAM
# Test PASSED : ref = z | dut = z
# ram_pkg.scoreboard.run Got data_in = 57 | address = 15 | write_en = 1 | read_en = 0
# Writing into the reference
# 
#  
# Driving inputs at time 5900 Test ID 19: data_in = 253 | address = 20 | write_en = 1 | read_en = 0
# ram_pkg.monitor.run Test ID: 18 Monitor Putting dut out: z into mailbox at time 5900
# Writing in to RAM
# Test PASSED : ref = z | dut = z
# ram_pkg.scoreboard.run Got data_in = 253 | address = 20 | write_en = 1 | read_en = 0
# Writing into the reference
# 
#  
# Driving inputs at time 5980 Test ID 20: data_in = 156 | address = 2 | write_en = 1 | read_en = 0
# ram_pkg.monitor.run Test ID: 19 Monitor Putting dut out: z into mailbox at time 5980
# Writing in to RAM
# Test PASSED : ref = z | dut = z
# ram_pkg.scoreboard.run Got data_in = 156 | address = 2 | write_en = 1 | read_en = 0
# Writing into the reference
# 
#  
# Driving inputs at time 6060 Test ID 21: data_in = 134 | address = 10 | write_en = 1 | read_en = 0
# ram_pkg.monitor.run Test ID: 20 Monitor Putting dut out: z into mailbox at time 6060
# Writing in to RAM
# Test PASSED : ref = z | dut = z
# ram_pkg.scoreboard.run Got data_in = 134 | address = 10 | write_en = 1 | read_en = 0
# Writing into the reference
# 
#  
# Driving inputs at time 6140 Test ID 22: data_in = 192 | address = 24 | write_en = 1 | read_en = 0
# ram_pkg.monitor.run Test ID: 21 Monitor Putting dut out: z into mailbox at time 6140
# Writing in to RAM
# Test PASSED : ref = z | dut = z
# ram_pkg.scoreboard.run Got data_in = 192 | address = 24 | write_en = 1 | read_en = 0
# Writing into the reference
# 
#  
# Driving inputs at time 6220 Test ID 23: data_in = 73 | address = 1 | write_en = 1 | read_en = 0
# ram_pkg.monitor.run Test ID: 22 Monitor Putting dut out: z into mailbox at time 6220
# Writing in to RAM
# Test PASSED : ref = z | dut = z
# ram_pkg.scoreboard.run Got data_in = 73 | address = 1 | write_en = 1 | read_en = 0
# Writing into the reference
# 
#  
# Driving inputs at time 6300 Test ID 24: data_in = 8 | address = 23 | write_en = 1 | read_en = 0
# ram_pkg.monitor.run Test ID: 23 Monitor Putting dut out: z into mailbox at time 6300
# Writing in to RAM
# Test PASSED : ref = z | dut = z
# ram_pkg.scoreboard.run Got data_in = 8 | address = 23 | write_en = 1 | read_en = 0
# Writing into the reference
# 
#  
# Driving inputs at time 6380 Test ID 25: data_in = 152 | address = 2 | write_en = 1 | read_en = 0
# ram_pkg.monitor.run Test ID: 24 Monitor Putting dut out: z into mailbox at time 6380
# Writing in to RAM
# Test PASSED : ref = z | dut = z
# ram_pkg.scoreboard.run Got data_in = 152 | address = 2 | write_en = 1 | read_en = 0
# Writing into the reference
# 
#  
# Driving inputs at time 6460 Test ID 26: data_in = 134 | address = 4 | write_en = 1 | read_en = 0
# ram_pkg.monitor.run Test ID: 25 Monitor Putting dut out: z into mailbox at time 6460
# Writing in to RAM
# Test PASSED : ref = z | dut = z
# ram_pkg.scoreboard.run Got data_in = 134 | address = 4 | write_en = 1 | read_en = 0
# Writing into the reference
# 
#  
# Driving inputs at time 6540 Test ID 27: data_in = 36 | address = 16 | write_en = 1 | read_en = 0
# ram_pkg.monitor.run Test ID: 26 Monitor Putting dut out: z into mailbox at time 6540
# Writing in to RAM
# Test PASSED : ref = z | dut = z
# ram_pkg.scoreboard.run Got data_in = 36 | address = 16 | write_en = 1 | read_en = 0
# Writing into the reference
# 
#  
# Driving inputs at time 6620 Test ID 28: data_in = 169 | address = 24 | write_en = 1 | read_en = 0
# ram_pkg.monitor.run Test ID: 27 Monitor Putting dut out: z into mailbox at time 6620
# Writing in to RAM
# Test PASSED : ref = z | dut = z
# ram_pkg.scoreboard.run Got data_in = 169 | address = 24 | write_en = 1 | read_en = 0
# Writing into the reference
# 
#  
# Driving inputs at time 6700 Test ID 29: data_in = 140 | address = 30 | write_en = 1 | read_en = 0
# ram_pkg.monitor.run Test ID: 28 Monitor Putting dut out: z into mailbox at time 6700
# Writing in to RAM
# Test PASSED : ref = z | dut = z
